{
  "deployed": {
    "Contract": {
      "Genome": {
        "localhost": {
          "address": "0x8A791620dd6260079BF849Dc5567aDC3F2FdC318",
          "deployer": "0xf39Fd6e51aad88F6F4ce6aB8827279cffFb92266"
        }
      },
      "AnimalBase": {
        "localhost": {
          "address": "0x9fE46736679d2D9a65F0992F2272dE9f3c7fa6e0",
          "deployer": "0xf39Fd6e51aad88F6F4ce6aB8827279cffFb92266"
        }
      },
      "AnimalCore": {
        "localhost": {
          "address": "0xcbEAF3BDe82155F56486Fb5a1072cb8baAf547cc",
          "deployer": "0xf39Fd6e51aad88F6F4ce6aB8827279cffFb92266"
        }
      },
      "GenomeControl": {
        "localhost": {
          "address": "0x5FbDB2315678afecb367f032d93F642f64180aa3",
          "deployer": "0xf39Fd6e51aad88F6F4ce6aB8827279cffFb92266"
        }
      }
    }
  },
  "Contract": {
    "Genome": {
      "localhost": "0x8A791620dd6260079BF849Dc5567aDC3F2FdC318"
    },
    "AnimalBase": {
      "localhost": "0x9fE46736679d2D9a65F0992F2272dE9f3c7fa6e0"
    },
    "AnimalCore": {
      "localhost": "0xcbEAF3BDe82155F56486Fb5a1072cb8baAf547cc"
    },
    "GenomeControl": {
      "localhost": "0x5FbDB2315678afecb367f032d93F642f64180aa3"
    }
  }
}